^C:\USERS\HP 6710EW\DOCUMENTS\VISUAL STUDIO 2010\PROJECTS\DYSTORSJA TESTOWA\DYSTORSJA TESTOWA\DEBUG\DYSTORSJA TESTOWA.EXE.INTERMEDIATE.MANIFEST
/nologo /verbose /out:"Debug\dystorsja testowa.exe.embed.manifest" /manifest "Debug\dystorsja testowa.exe.intermediate.manifest"
^C:\USERS\HP 6710EW\DOCUMENTS\VISUAL STUDIO 2010\PROJECTS\DYSTORSJA TESTOWA\DYSTORSJA TESTOWA\DEBUG\KOREKCJA.EXE.INTERMEDIATE.MANIFEST
/nologo /verbose /out:"Debug\korekcja.exe.embed.manifest" /manifest Debug\korekcja.exe.intermediate.manifest
