127.0.0.1 - - [25/May/2016:19:52:15 +0200] "GET / HTTP/1.1" 404 994
0:0:0:0:0:0:0:1 - - [25/May/2016:19:52:17 +0200] "GET /FormEx/index.jsp HTTP/1.1" 200 599
0:0:0:0:0:0:0:1 - - [25/May/2016:19:52:17 +0200] "GET /FormEx/style.css HTTP/1.1" 304 -
0:0:0:0:0:0:0:1 - - [25/May/2016:19:52:18 +0200] "GET /FormEx/Zaloguj HTTP/1.1" 404 1030
0:0:0:0:0:0:0:1 - - [25/May/2016:19:52:45 +0200] "GET /FormEx/index.jsp HTTP/1.1" 200 599
0:0:0:0:0:0:0:1 - - [25/May/2016:19:52:47 +0200] "GET /FormEx/Zaloguj HTTP/1.1" 404 1030
0:0:0:0:0:0:0:1 - - [25/May/2016:19:53:13 +0200] "GET /FormEx/index.jsp HTTP/1.1" 200 599
0:0:0:0:0:0:0:1 - - [25/May/2016:19:53:15 +0200] "GET /FormEx/Zaloguj HTTP/1.1" 404 1030
0:0:0:0:0:0:0:1 - - [25/May/2016:19:54:24 +0200] "GET /FormEx/index.jsp HTTP/1.1" 200 610
0:0:0:0:0:0:0:1 - - [25/May/2016:19:54:25 +0200] "GET /FormEx/WebContent/Zaloguj HTTP/1.1" 404 1044
0:0:0:0:0:0:0:1 - - [25/May/2016:19:55:06 +0200] "GET /FormEx/Zaloguj HTTP/1.1" 404 1030
0:0:0:0:0:0:0:1 - - [25/May/2016:19:55:31 +0200] "GET /FormEx/index.jsp HTTP/1.1" 200 601
0:0:0:0:0:0:0:1 - - [25/May/2016:19:55:31 +0200] "GET /FormEx/style.css HTTP/1.1" 304 -
0:0:0:0:0:0:0:1 - - [25/May/2016:19:55:31 +0200] "GET /FormEx/Zaloguj HTTP/1.1" 404 1030
127.0.0.1 - - [25/May/2016:19:55:43 +0200] "GET / HTTP/1.1" 404 994
0:0:0:0:0:0:0:1 - - [25/May/2016:19:55:44 +0200] "GET /FormEx/Zaloguj HTTP/1.1" 404 1052
127.0.0.1 - - [25/May/2016:19:56:26 +0200] "GET / HTTP/1.1" 404 994
0:0:0:0:0:0:0:1 - - [25/May/2016:19:56:27 +0200] "GET /FormEx/Zaloguj HTTP/1.1" 200 305
0:0:0:0:0:0:0:1 - - [25/May/2016:19:56:37 +0200] "GET /FormEx/index.jsp HTTP/1.1" 200 601
0:0:0:0:0:0:0:1 - - [25/May/2016:19:56:39 +0200] "GET /FormEx/Zaloguj HTTP/1.1" 200 305
127.0.0.1 - - [25/May/2016:20:06:01 +0200] "GET / HTTP/1.1" 404 994
0:0:0:0:0:0:0:1 - - [25/May/2016:20:06:02 +0200] "GET /FormEx/WEB-INF/classes/conttroller/ZalogujController.java HTTP/1.1" 404 992
0:0:0:0:0:0:0:1 - - [25/May/2016:20:06:13 +0200] "GET /FormEx/index.jsp HTTP/1.1" 200 601
0:0:0:0:0:0:0:1 - - [25/May/2016:20:06:16 +0200] "GET /FormEx/Zaloguj HTTP/1.1" 200 -
0:0:0:0:0:0:0:1 - - [25/May/2016:20:06:19 +0200] "GET /FormEx/Zaloguj HTTP/1.1" 200 -
127.0.0.1 - - [25/May/2016:20:11:38 +0200] "GET / HTTP/1.1" 404 994
0:0:0:0:0:0:0:1 - - [25/May/2016:20:11:38 +0200] "GET /FormEx/Zaloguj HTTP/1.1" 200 -
0:0:0:0:0:0:0:1 - - [25/May/2016:20:11:49 +0200] "GET /FormEx/index.jsp HTTP/1.1" 200 601
0:0:0:0:0:0:0:1 - - [25/May/2016:20:11:55 +0200] "GET /FormEx/Zaloguj HTTP/1.1" 200 -
0:0:0:0:0:0:0:1 - - [25/May/2016:20:12:02 +0200] "GET /FormEx/index.jsp?login=a&password=aa HTTP/1.1" 200 601
0:0:0:0:0:0:0:1 - - [25/May/2016:20:12:32 +0200] "GET /FormEx/index.jsp?login=a&password=aa HTTP/1.1" 200 601
0:0:0:0:0:0:0:1 - - [25/May/2016:20:12:38 +0200] "GET /FormEx/Zaloguj HTTP/1.1" 200 -
0:0:0:0:0:0:0:1 - - [25/May/2016:20:12:41 +0200] "GET /FormEx/index.jsp?login=a&password=aa HTTP/1.1" 200 601
0:0:0:0:0:0:0:1 - - [25/May/2016:20:12:52 +0200] "GET /FormEx/index.jsp?login=a&password=aa HTTP/1.1" 200 601
0:0:0:0:0:0:0:1 - - [25/May/2016:20:14:00 +0200] "GET /FormEx/index.jsp?login=fsadf&password=fasdf HTTP/1.1" 200 601
0:0:0:0:0:0:0:1 - - [25/May/2016:20:14:58 +0200] "GET /FormEx/index.jsp HTTP/1.1" 200 601
0:0:0:0:0:0:0:1 - - [25/May/2016:20:15:01 +0200] "GET /FormEx/index.jsp?login=dafsd&password=fasdf HTTP/1.1" 200 601
0:0:0:0:0:0:0:1 - - [25/May/2016:20:15:04 +0200] "GET /FormEx/index.jsp?login=a&password=aa HTTP/1.1" 200 601
0:0:0:0:0:0:0:1 - - [25/May/2016:20:15:44 +0200] "GET /FormEx/index.jsp HTTP/1.1" 200 602
0:0:0:0:0:0:0:1 - - [25/May/2016:20:15:49 +0200] "GET /FormEx/index.jsp?login=asdsa&password=dasd HTTP/1.1" 200 602
0:0:0:0:0:0:0:1 - - [25/May/2016:20:15:51 +0200] "GET /FormEx/index.jsp?login=a&password=aa HTTP/1.1" 200 602
0:0:0:0:0:0:0:1 - - [25/May/2016:20:16:45 +0200] "GET /FormEx/Zaloguj HTTP/1.1" 200 -
127.0.0.1 - - [25/May/2016:20:18:51 +0200] "GET / HTTP/1.1" 404 994
0:0:0:0:0:0:0:1 - - [25/May/2016:20:18:51 +0200] "GET /FormEx/index.jsp HTTP/1.1" 200 602
0:0:0:0:0:0:0:1 - - [25/May/2016:20:18:54 +0200] "GET /FormEx/index.jsp?login=a&password=aa HTTP/1.1" 200 602
0:0:0:0:0:0:0:1 - - [25/May/2016:20:20:13 +0200] "GET /FormEx/index.jsp HTTP/1.1" 200 657
0:0:0:0:0:0:0:1 - - [25/May/2016:20:20:16 +0200] "POST /FormEx/Zaloguj?akcja%20=%20logowanie HTTP/1.1" 500 1460
0:0:0:0:0:0:0:1 - - [25/May/2016:20:21:02 +0200] "GET /FormEx/index.jsp HTTP/1.1" 200 655
0:0:0:0:0:0:0:1 - - [25/May/2016:20:21:04 +0200] "POST /FormEx/Zaloguj?akcja=logowanie HTTP/1.1" 302 -
0:0:0:0:0:0:0:1 - - [25/May/2016:20:21:04 +0200] "GET /FormEx/welcome.jsp HTTP/1.1" 200 305
0:0:0:0:0:0:0:1 - - [25/May/2016:20:21:08 +0200] "POST /FormEx/Zaloguj?akcja=logowanie HTTP/1.1" 302 -
0:0:0:0:0:0:0:1 - - [25/May/2016:20:21:08 +0200] "GET /FormEx/error.jsp HTTP/1.1" 200 280
127.0.0.1 - - [25/May/2016:20:33:54 +0200] "GET / HTTP/1.1" 404 994
0:0:0:0:0:0:0:1 - - [25/May/2016:20:33:54 +0200] "GET /FormEx/index.jsp HTTP/1.1" 200 655
0:0:0:0:0:0:0:1 - - [25/May/2016:20:33:57 +0200] "POST /FormEx/Zaloguj?akcja=logowanie HTTP/1.1" 302 -
0:0:0:0:0:0:0:1 - - [25/May/2016:20:33:58 +0200] "GET /FormEx/welcome.jsp HTTP/1.1" 200 357
0:0:0:0:0:0:0:1 - - [25/May/2016:20:34:00 +0200] "GET /FormEx/Zaloguj?akcja=wyloguj HTTP/1.1" 200 -
127.0.0.1 - - [25/May/2016:20:34:44 +0200] "GET / HTTP/1.1" 404 994
0:0:0:0:0:0:0:1 - - [25/May/2016:20:34:45 +0200] "GET /FormEx/index.jsp HTTP/1.1" 200 655
0:0:0:0:0:0:0:1 - - [25/May/2016:20:34:48 +0200] "POST /FormEx/Zaloguj?akcja=logowanie HTTP/1.1" 302 -
0:0:0:0:0:0:0:1 - - [25/May/2016:20:34:48 +0200] "GET /FormEx/welcome.jsp HTTP/1.1" 200 357
0:0:0:0:0:0:0:1 - - [25/May/2016:20:34:49 +0200] "GET /FormEx/Zaloguj?akcja=wyloguj HTTP/1.1" 302 -
0:0:0:0:0:0:0:1 - - [25/May/2016:20:34:49 +0200] "GET /FormEx/index.jsp HTTP/1.1" 200 655
0:0:0:0:0:0:0:1 - - [25/May/2016:20:34:53 +0200] "POST /FormEx/Zaloguj?akcja=logowanie HTTP/1.1" 302 -
0:0:0:0:0:0:0:1 - - [25/May/2016:20:34:53 +0200] "GET /FormEx/error.jsp HTTP/1.1" 200 280
0:0:0:0:0:0:0:1 - - [25/May/2016:20:34:58 +0200] "POST /FormEx/Zaloguj?akcja=logowanie HTTP/1.1" 302 -
0:0:0:0:0:0:0:1 - - [25/May/2016:20:34:58 +0200] "GET /FormEx/welcome.jsp HTTP/1.1" 200 357
0:0:0:0:0:0:0:1 - - [25/May/2016:20:35:01 +0200] "GET /FormEx/welcome.jsp HTTP/1.1" 200 357
0:0:0:0:0:0:0:1 - - [25/May/2016:20:35:01 +0200] "GET /FormEx/welcome.jsp HTTP/1.1" 200 357
0:0:0:0:0:0:0:1 - - [25/May/2016:20:35:03 +0200] "GET /FormEx/Zaloguj?akcja=wyloguj HTTP/1.1" 302 -
0:0:0:0:0:0:0:1 - - [25/May/2016:20:35:03 +0200] "GET /FormEx/index.jsp HTTP/1.1" 200 655
0:0:0:0:0:0:0:1 - - [25/May/2016:20:35:08 +0200] "POST /FormEx/Zaloguj?akcja=logowanie HTTP/1.1" 302 -
0:0:0:0:0:0:0:1 - - [25/May/2016:20:35:08 +0200] "GET /FormEx/welcome.jsp HTTP/1.1" 200 357
0:0:0:0:0:0:0:1 - - [25/May/2016:20:35:15 +0200] "GET /FormEx/index.jsp HTTP/1.1" 200 655
0:0:0:0:0:0:0:1 - - [25/May/2016:20:35:19 +0200] "POST /FormEx/Zaloguj?akcja=logowanie HTTP/1.1" 302 -
0:0:0:0:0:0:0:1 - - [25/May/2016:20:35:19 +0200] "GET /FormEx/error.jsp HTTP/1.1" 200 280
0:0:0:0:0:0:0:1 - - [25/May/2016:20:35:22 +0200] "POST /FormEx/Zaloguj?akcja=logowanie HTTP/1.1" 302 -
0:0:0:0:0:0:0:1 - - [25/May/2016:20:35:22 +0200] "GET /FormEx/welcome.jsp HTTP/1.1" 200 357
0:0:0:0:0:0:0:1 - - [25/May/2016:20:35:24 +0200] "GET /FormEx/Zaloguj?akcja=wyloguj HTTP/1.1" 302 -
0:0:0:0:0:0:0:1 - - [25/May/2016:20:35:24 +0200] "GET /FormEx/index.jsp HTTP/1.1" 200 655
